Running OpenMP benchmark version 4.0
	2 thread(s)
	500 outer repetitions
	5000.00 test time (microseconds)
	126 delay length (iterations) 
	0.100000 delay time (microseconds)

--------------------------------------------------------
Computing reference time 1 time using 163840 reps

Sample_size       Mean       Median     Min        Max        StdDev     Outliers
 500               0.090071   0.090071   0.090056   0.090180   0.000010   3
reference time 1 mean time    = 0.090071 microseconds +/- 0.000019
reference time 1 median time  = 0.090071 microseconds

--------------------------------------------------------
Computing BARRIER time using 20480 reps

Sample_size       Mean       Median     Min        Max        StdDev     Outliers
 500               0.610107   0.610098   0.608992   0.611530   0.000284   4
BARRIER time         = 0.610107 microseconds +/- 0.000556
BARRIER overhead     = 0.520036 microseconds +/- 0.000575
BARRIER median_ovrhd = 0.520027 microseconds 
