Running OpenMP benchmark version 4.0
	4 thread(s)
	500 outer repetitions
	5000.00 test time (microseconds)
	126 delay length (iterations) 
	0.100000 delay time (microseconds)

--------------------------------------------------------
Computing reference time 1 time using 163840 reps

Sample_size       Mean       Median     Min        Max        StdDev     Outliers
 500               0.090071   0.090069   0.090056   0.090185   0.000010   5
reference time 1 mean time    = 0.090071 microseconds +/- 0.000019
reference time 1 median time  = 0.090069 microseconds

--------------------------------------------------------
Computing BARRIER time using 20480 reps

Sample_size       Mean       Median     Min        Max        StdDev     Outliers
 500               0.771951   0.771927   0.770949   0.772998   0.000375   0
BARRIER time         = 0.771951 microseconds +/- 0.000734
BARRIER overhead     = 0.681880 microseconds +/- 0.000754
BARRIER median_ovrhd = 0.681858 microseconds 
