Running OpenMP benchmark version 4.0
	2 thread(s)
	500 outer repetitions
	5000.00 test time (microseconds)
	126 delay length (iterations) 
	0.100000 delay time (microseconds)

--------------------------------------------------------
Computing reference time 1 time using 163840 reps

Sample_size       Mean       Median     Min        Max        StdDev     Outliers
 500               0.090072   0.090071   0.090056   0.090178   0.000009   2
reference time 1 mean time    = 0.090072 microseconds +/- 0.000019
reference time 1 median time  = 0.090071 microseconds

--------------------------------------------------------
Computing BARRIER time using 40960 reps

Sample_size       Mean       Median     Min        Max        StdDev     Outliers
 500               0.393339   0.393338   0.392820   0.394264   0.000191   1
BARRIER time         = 0.393339 microseconds +/- 0.000375
BARRIER overhead     = 0.303267 microseconds +/- 0.000393
BARRIER median_ovrhd = 0.303268 microseconds 
