Running problem size 26^3 per domain until completion
Num processors: 1
Num threads: 2
Total number of elements: 17576 

To run other sizes, use -s <integer>.
To run a fixed number of iterations, use -i <integer>.
To run a more or less balanced region set, use -b <integer>.
To change the relative costs of regions, use -c <integer>.
To print out progress, use -p
To write an output file for VisIt, use -v
See help (-h) for more options

Run completed:
   Problem size        =  26
   MPI tasks           =  1
   Iteration count     =  788
   Final Origin Energy =  1.562995e+05
   Testing Plane 0 of Energy Array on rank 0:
        MaxAbsDiff   = 3.637979e-11
        TotalAbsDiff = 4.823282e-10
        MaxRelDiff   = 5.312736e-13

Elapsed time         =        8.2 (s)
Grind time (us/z/c)  = 0.59459434 (per dom)  (  8.235065 overall)
FOM                  =  1681.8189 (z/s)

