Running OpenMP benchmark version 4.0
	4 thread(s)
	500 outer repetitions
	5000.00 test time (microseconds)
	126 delay length (iterations) 
	0.100000 delay time (microseconds)

--------------------------------------------------------
Computing reference time 1 time using 163840 reps

Sample_size       Mean       Median     Min        Max        StdDev     Outliers
 500               0.090071   0.090071   0.090056   0.090178   0.000010   4
reference time 1 mean time    = 0.090071 microseconds +/- 0.000020
reference time 1 median time  = 0.090071 microseconds

--------------------------------------------------------
Computing BARRIER time using 20480 reps

Sample_size       Mean       Median     Min        Max        StdDev     Outliers
 500               0.849965   0.849855   0.848586   0.851857   0.000618   1
BARRIER time         = 0.849965 microseconds +/- 0.001211
BARRIER overhead     = 0.759894 microseconds +/- 0.001231
BARRIER median_ovrhd = 0.759785 microseconds 
